\relax 
\providecommand\hyper@newdestlabel[2]{}
\@writefile{toc}{\contentsline {chapter}{\numberline {4}Algorithm}{28}{chapter.4}\protected@file@percent }
\@writefile{lof}{\addvspace {10\p@ }}
\@writefile{lot}{\addvspace {10\p@ }}
\@writefile{loa}{\addvspace {10\p@ }}
\newlabel{chap:algorithm}{{4}{28}{Algorithm}{chapter.4}{}}
\newlabel{chap:algorithm@cref}{{[chapter][4][]4}{[1][28][]28}}
\@writefile{toc}{\contentsline {section}{\numberline {4.1}Algorithm core}{28}{section.4.1}\protected@file@percent }
\newlabel{section:algorithm_core}{{4.1}{28}{Algorithm core}{section.4.1}{}}
\newlabel{section:algorithm_core@cref}{{[section][1][4]4.1}{[1][28][]28}}
\@writefile{loa}{\contentsline {algocf}{\numberline {1}{\ignorespaces Core of the loop summarization algorithm.\relax }}{28}{algocf.1}\protected@file@percent }
\newlabel{alg:sum_state_diagram}{{1}{28}{Algorithm core}{algocf.1}{}}
\newlabel{alg:sum_state_diagram@cref}{{[algorithm][1][]1}{[1][28][]28}}
\@writefile{lof}{\contentsline {figure}{\numberline {4.1}{\ignorespaces Examples of simple cycles with respect to function $\mathit  {isSimpleCycle}$.\relax }}{29}{figure.caption.18}\protected@file@percent }
\newlabel{fig:simple_cycles}{{4.1}{29}{Examples of simple cycles with respect to function $\mathit {isSimpleCycle}$.\relax }{figure.caption.18}{}}
\newlabel{fig:simple_cycles@cref}{{[figure][1][4]4.1}{[1][29][]29}}
\@writefile{toc}{\contentsline {section}{\numberline {4.2}Digraph algorithms}{29}{section.4.2}\protected@file@percent }
\newlabel{section:digraph_algorithms}{{4.2}{29}{Digraph algorithms}{section.4.2}{}}
\newlabel{section:digraph_algorithms@cref}{{[section][2][4]4.2}{[1][29][]29}}
\@writefile{lof}{\contentsline {figure}{\numberline {4.2}{\ignorespaces Examples of digraphs that are not considered to be simple cycles by function $\mathit  {isSimpleCycle}$.\relax }}{30}{figure.caption.19}\protected@file@percent }
\newlabel{fig:simple_cycles_not}{{4.2}{30}{Examples of digraphs that are not considered to be simple cycles by function $\mathit {isSimpleCycle}$.\relax }{figure.caption.19}{}}
\newlabel{fig:simple_cycles_not@cref}{{[figure][2][4]4.2}{[1][29][]30}}
\@writefile{lof}{\contentsline {figure}{\numberline {4.3}{\ignorespaces Splittable digraph.\relax }}{30}{figure.caption.20}\protected@file@percent }
\newlabel{fig:splittable_digraph}{{4.3}{30}{Splittable digraph.\relax }{figure.caption.20}{}}
\newlabel{fig:splittable_digraph@cref}{{[figure][3][4]4.3}{[1][29][]30}}
\newlabel{def:loop_diagram}{{16}{30}{loop diagram}{define.16}{}}
\newlabel{def:loop_diagram@cref}{{[define][16][]16}{[1][29][]30}}
\@writefile{lof}{\contentsline {figure}{\numberline {4.4}{\ignorespaces Loop diagram created by function $\mathit  {buildLoopDiagram}$ from the state diagram from Figure\nobreakspace  {}\ref  {fig:splittable_digraph}. Each vertex corresponds to a state diagram.\relax }}{30}{figure.caption.21}\protected@file@percent }
\newlabel{fig:loop_diagram}{{4.4}{30}{Loop diagram created by function $\mathit {buildLoopDiagram}$ from the state diagram from Figure~\ref {fig:splittable_digraph}. Each vertex corresponds to a state diagram.\relax }{figure.caption.21}{}}
\newlabel{fig:loop_diagram@cref}{{[figure][4][4]4.4}{[1][30][]30}}
\@writefile{toc}{\contentsline {section}{\numberline {4.3}Simplifying function}{31}{section.4.3}\protected@file@percent }
\newlabel{section:simplifying_function}{{4.3}{31}{Simplifying function}{section.4.3}{}}
\newlabel{section:simplifying_function@cref}{{[section][3][4]4.3}{[1][31][]31}}
\@writefile{loa}{\contentsline {algocf}{\numberline {2}{\ignorespaces Simplifies state diagrams.\relax }}{31}{algocf.2}\protected@file@percent }
\newlabel{alg:simplify}{{2}{31}{Simplifying function}{algocf.2}{}}
\newlabel{alg:simplify@cref}{{[algorithm][2][]2}{[1][31][]31}}
\@writefile{loa}{\contentsline {algocf}{\numberline {3}{\ignorespaces Preparation of a state diagram for simplification.\relax }}{32}{algocf.3}\protected@file@percent }
\newlabel{alg:splitTerminablePaths}{{3}{32}{Simplifying function}{algocf.3}{}}
\newlabel{alg:splitTerminablePaths@cref}{{[algorithm][3][]3}{[1][31][]32}}
\newlabel{fig:visualization_of_simplification_initial}{{4.5a}{33}{Initial state diagram. \relax }{figure.caption.24}{}}
\newlabel{fig:visualization_of_simplification_initial@cref}{{[subfigure][1][4,5]4.5a}{[1][32][]33}}
\newlabel{sub@fig:visualization_of_simplification_initial}{{a}{33}{Initial state diagram. \relax }{figure.caption.24}{}}
\newlabel{sub@fig:visualization_of_simplification_initial@cref}{{[subfigure][1][4,5]4.5a}{[1][32][]33}}
\newlabel{fig:visualization_of_simplification_step1}{{4.5b}{33}{After first step of function $\mathit {splitTerminablePaths}$. \relax }{figure.caption.24}{}}
\newlabel{fig:visualization_of_simplification_step1@cref}{{[subfigure][2][4,5]4.5b}{[1][32][]33}}
\newlabel{sub@fig:visualization_of_simplification_step1}{{b}{33}{After first step of function $\mathit {splitTerminablePaths}$. \relax }{figure.caption.24}{}}
\newlabel{sub@fig:visualization_of_simplification_step1@cref}{{[subfigure][2][4,5]4.5b}{[1][32][]33}}
\newlabel{fig:visualization_of_simplification_step2}{{4.5c}{33}{Result of function $\mathit {splitTerminablePaths}$. \relax }{figure.caption.24}{}}
\newlabel{fig:visualization_of_simplification_step2@cref}{{[subfigure][3][4,5]4.5c}{[1][32][]33}}
\newlabel{sub@fig:visualization_of_simplification_step2}{{c}{33}{Result of function $\mathit {splitTerminablePaths}$. \relax }{figure.caption.24}{}}
\newlabel{sub@fig:visualization_of_simplification_step2@cref}{{[subfigure][3][4,5]4.5c}{[1][32][]33}}
\newlabel{fig:visualization_of_simplification_remove}{{4.5d}{33}{After removing states. \relax }{figure.caption.24}{}}
\newlabel{fig:visualization_of_simplification_remove@cref}{{[subfigure][4][4,5]4.5d}{[1][32][]33}}
\newlabel{sub@fig:visualization_of_simplification_remove}{{d}{33}{After removing states. \relax }{figure.caption.24}{}}
\newlabel{sub@fig:visualization_of_simplification_remove@cref}{{[subfigure][4][4,5]4.5d}{[1][32][]33}}
\newlabel{fig:visualization_of_simplification_merge}{{4.5e}{33}{After merging states. \relax }{figure.caption.24}{}}
\newlabel{fig:visualization_of_simplification_merge@cref}{{[subfigure][5][4,5]4.5e}{[1][32][]33}}
\newlabel{sub@fig:visualization_of_simplification_merge}{{e}{33}{After merging states. \relax }{figure.caption.24}{}}
\newlabel{sub@fig:visualization_of_simplification_merge@cref}{{[subfigure][5][4,5]4.5e}{[1][32][]33}}
\@writefile{lof}{\contentsline {figure}{\numberline {4.5}{\ignorespaces Visualization of function $\mathit  {simplify}$ with assumption that $\Gamma (\mathbf  {BCIA}) = \top $, $\Gamma (\mathbf  {CDE}) = \top $, $\Gamma (\mathbf  {BCDE}) = \bot $, $\Gamma (\mathbf  {DEF}) = \top $ and $\Gamma (\mathbf  {CDEF}) = \bot $.\relax }}{33}{figure.caption.24}\protected@file@percent }
\newlabel{fig:effect_of_simplify}{{4.5}{33}{Visualization of function $\mathit {simplify}$ with assumption that $\Gamma (\mathbf {BCIA}) = \top $, $\Gamma (\mathbf {CDE}) = \top $, $\Gamma (\mathbf {BCDE}) = \bot $, $\Gamma (\mathbf {DEF}) = \top $ and $\Gamma (\mathbf {CDEF}) = \bot $.\relax }{figure.caption.24}{}}
\newlabel{fig:effect_of_simplify@cref}{{[figure][5][4]4.5}{[1][32][]33}}
\@writefile{loa}{\contentsline {algocf}{\numberline {4}{\ignorespaces Adds edges after splitting states.\relax }}{34}{algocf.4}\protected@file@percent }
\newlabel{alg:updateEdgesAfterSplit}{{4}{34}{Simplifying function}{algocf.4}{}}
\newlabel{alg:updateEdgesAfterSplit@cref}{{[algorithm][4][]4}{[1][34][]34}}
\@writefile{toc}{\contentsline {section}{\numberline {4.4}Summarization functions}{35}{section.4.4}\protected@file@percent }
\newlabel{section:sum_functions}{{4.4}{35}{Summarization functions}{section.4.4}{}}
\newlabel{section:sum_functions@cref}{{[section][4][4]4.4}{[1][35][]35}}
\@writefile{loa}{\contentsline {algocf}{\numberline {5}{\ignorespaces Summarization of a trivial state diagram.\relax }}{35}{algocf.5}\protected@file@percent }
\newlabel{alg:sum_trivial}{{5}{35}{}{algocf.5}{}}
\newlabel{alg:sum_trivial@cref}{{[algorithm][5][]5}{[1][35][]35}}
\@writefile{loa}{\contentsline {algocf}{\numberline {6}{\ignorespaces Summarization of a simple cycle.\relax }}{36}{algocf.6}\protected@file@percent }
\newlabel{alg:sum_simple_cycle}{{6}{36}{}{algocf.6}{}}
\newlabel{alg:sum_simple_cycle@cref}{{[algorithm][6][]6}{[1][36][]36}}
\newlabel{example:simple_cycle_phases}{{4}{36}{}{example.4}{}}
\newlabel{example:simple_cycle_phases@cref}{{[example][4][]4}{[1][36][]36}}
\@writefile{lof}{\contentsline {figure}{\numberline {4.6}{\ignorespaces A simple cycle.\relax }}{37}{figure.caption.28}\protected@file@percent }
\newlabel{fig:simple_cycle_phases}{{4.6}{37}{A simple cycle.\relax }{figure.caption.28}{}}
\newlabel{fig:simple_cycle_phases@cref}{{[figure][6][4]4.6}{[1][37][]37}}
\@writefile{loa}{\contentsline {algocf}{\numberline {7}{\ignorespaces The first phase of summarization of a simple cycle.\relax }}{38}{algocf.7}\protected@file@percent }
\newlabel{alg:sum_simple_cycle_phase_1}{{7}{38}{}{algocf.7}{}}
\newlabel{alg:sum_simple_cycle_phase_1@cref}{{[algorithm][7][]7}{[1][37][]38}}
\@writefile{loa}{\contentsline {algocf}{\numberline {8}{\ignorespaces Single execution of the full cycle in the second phase.\relax }}{38}{algocf.8}\protected@file@percent }
\newlabel{alg:sum_simple_cycle_phase_2_1}{{8}{38}{}{algocf.8}{}}
\newlabel{alg:sum_simple_cycle_phase_2_1@cref}{{[algorithm][8][]8}{[1][38][]38}}
\@writefile{loa}{\contentsline {algocf}{\numberline {9}{\ignorespaces Repeated execution of the full cycle in the second phase. Variables $i$ and $\iota $ represent iteration of the full cycle.\relax }}{39}{algocf.9}\protected@file@percent }
\newlabel{alg:sum_simple_cycle_phase_2_2}{{9}{39}{}{algocf.9}{}}
\newlabel{alg:sum_simple_cycle_phase_2_2@cref}{{[algorithm][9][]9}{[1][39][]39}}
\@writefile{loa}{\contentsline {algocf}{\numberline {10}{\ignorespaces Computes combined effect of update matrices.\relax }}{40}{algocf.10}\protected@file@percent }
\newlabel{alg:combineUpdates}{{10}{40}{}{algocf.10}{}}
\newlabel{alg:combineUpdates@cref}{{[algorithm][10][]10}{[1][40][]40}}
\newlabel{example:combineUpdates}{{5}{40}{}{example.5}{}}
\newlabel{example:combineUpdates@cref}{{[example][5][]5}{[1][40][]40}}
\newlabel{example:getContinueCondition}{{6}{40}{}{example.6}{}}
\newlabel{example:getContinueCondition@cref}{{[example][6][]6}{[1][40][]40}}
\@writefile{loa}{\contentsline {algocf}{\numberline {11}{\ignorespaces Decides if it is possible to proceed to the next state.\relax }}{41}{algocf.11}\protected@file@percent }
\newlabel{alg:getContinueCondition}{{11}{41}{}{algocf.11}{}}
\newlabel{alg:getContinueCondition@cref}{{[algorithm][11][]11}{[1][40][]41}}
\@writefile{loa}{\contentsline {algocf}{\numberline {12}{\ignorespaces Returns monotonicity condition as an array.\relax }}{42}{algocf.12}\protected@file@percent }
\newlabel{alg:monotonicityCondition}{{12}{42}{}{algocf.12}{}}
\newlabel{alg:monotonicityCondition@cref}{{[algorithm][12][]12}{[1][41][]42}}
\@writefile{loa}{\contentsline {algocf}{\numberline {13}{\ignorespaces Summarization of a loop diagram.\relax }}{43}{algocf.13}\protected@file@percent }
\newlabel{alg:summarizeLoopDiagram}{{13}{43}{}{algocf.13}{}}
\newlabel{alg:summarizeLoopDiagram@cref}{{[algorithm][13][]13}{[1][43][]43}}
\@writefile{loa}{\contentsline {algocf}{\numberline {14}{\ignorespaces Summarization of the current level.\relax }}{45}{algocf.14}\protected@file@percent }
\newlabel{alg:summarizeCurrentLevel}{{14}{45}{}{algocf.14}{}}
\newlabel{alg:summarizeCurrentLevel@cref}{{[algorithm][14][]14}{[1][44][]45}}
\@writefile{toc}{\contentsline {section}{\numberline {4.5}Implementation}{45}{section.4.5}\protected@file@percent }
\newlabel{section:implementation}{{4.5}{45}{Implementation}{section.4.5}{}}
\newlabel{section:implementation@cref}{{[section][5][4]4.5}{[1][44][]45}}
\@writefile{toc}{\contentsline {subsection}{\numberline {4.5.1}Overview}{45}{subsection.4.5.1}\protected@file@percent }
\@writefile{toc}{\contentsline {subsection}{\numberline {4.5.2}Structure description}{47}{subsection.4.5.2}\protected@file@percent }
\@setckpt{algorithm}{
\setcounter{page}{49}
\setcounter{equation}{0}
\setcounter{enumi}{0}
\setcounter{enumii}{0}
\setcounter{enumiii}{0}
\setcounter{enumiv}{0}
\setcounter{footnote}{2}
\setcounter{mpfootnote}{0}
\setcounter{part}{0}
\setcounter{chapter}{4}
\setcounter{section}{5}
\setcounter{subsection}{2}
\setcounter{subsubsection}{0}
\setcounter{paragraph}{0}
\setcounter{subparagraph}{0}
\setcounter{figure}{6}
\setcounter{table}{0}
\setcounter{Item}{0}
\setcounter{Hfootnote}{4}
\setcounter{bookmark@seq@number}{19}
\setcounter{parentequation}{0}
\setcounter{FancyVerbLine}{0}
\setcounter{NAT@ctr}{0}
\setcounter{lstnumber}{12}
\setcounter{ALC@unique}{0}
\setcounter{ALC@line}{0}
\setcounter{ALC@rem}{0}
\setcounter{ALC@depth}{0}
\setcounter{AlgoLine}{0}
\setcounter{algocfline}{14}
\setcounter{algocfproc}{14}
\setcounter{algocf}{14}
\setcounter{caption@flags}{0}
\setcounter{continuedfloat}{0}
\setcounter{subfigure}{0}
\setcounter{subtable}{0}
\setcounter{float@type}{8}
\setcounter{thm}{0}
\setcounter{define}{16}
\setcounter{example}{7}
\setcounter{section@level}{0}
\setcounter{lstlisting}{0}
}
