\relax 
\providecommand\hyper@newdestlabel[2]{}
\@writefile{toc}{\contentsline {chapter}{\numberline {3}Analysis}{9}{chapter.3}\protected@file@percent }
\@writefile{lof}{\addvspace {10\p@ }}
\@writefile{lot}{\addvspace {10\p@ }}
\@writefile{loa}{\addvspace {10\p@ }}
\newlabel{chapter:analysis}{{3}{9}{Analysis}{chapter.3}{}}
\newlabel{chapter:analysis@cref}{{[chapter][3][]3}{[1][9][]9}}
\@writefile{toc}{\contentsline {section}{\numberline {3.1}Fundamentals}{9}{section.3.1}\protected@file@percent }
\newlabel{section:fundamentals}{{3.1}{9}{Fundamentals}{section.3.1}{}}
\newlabel{section:fundamentals@cref}{{[section][1][3]3.1}{[1][9][]9}}
\newlabel{def:condition}{{1}{9}{condition}{define.1}{}}
\newlabel{def:condition@cref}{{[define][1][]1}{[1][9][]9}}
\newlabel{program:loop}{{3.1}{10}{A cycle written in pseudo-code}{lstlisting.3.1}{}}
\newlabel{program:loop@cref}{{[listing][1][3]3.1}{[1][10][]10}}
\@writefile{lol}{\contentsline {lstlisting}{\numberline {3.1}A cycle written in pseudo-code.}{10}{lstlisting.3.1}\protected@file@percent }
\newlabel{def:loop}{{5}{10}{loop}{define.5}{}}
\newlabel{def:loop@cref}{{[define][5][]5}{[1][10][]10}}
\newlabel{example:loop}{{1}{10}{}{example.1}{}}
\newlabel{example:loop@cref}{{[example][1][]1}{[1][10][]10}}
\newlabel{def:loop_summarization}{{6}{11}{loop summarization}{define.6}{}}
\newlabel{def:loop_summarization@cref}{{[define][6][]6}{[1][11][]11}}
\newlabel{example:loop_summarization}{{3}{12}{}{example.3}{}}
\newlabel{example:loop_summarization@cref}{{[example][3][]3}{[1][12][]12}}
\citation{LIN}
\citation{LIN}
\@writefile{toc}{\contentsline {section}{\numberline {3.2}Simple loop}{13}{section.3.2}\protected@file@percent }
\newlabel{section:simple_loop}{{3.2}{13}{Simple loop}{section.3.2}{}}
\newlabel{section:simple_loop@cref}{{[section][2][3]3.2}{[1][13][]13}}
\newlabel{program:loop_1}{{3.2}{14}{Simple nontrivial program}{lstlisting.3.2}{}}
\newlabel{program:loop_1@cref}{{[listing][2][3]3.2}{[1][13][]14}}
\@writefile{lol}{\contentsline {lstlisting}{\numberline {3.2}Simple nontrivial program.}{14}{lstlisting.3.2}\protected@file@percent }
\newlabel{eq:loop_1_summarization_x}{{3.1}{14}{Simple loop}{equation.3.2.1}{}}
\newlabel{eq:loop_1_summarization_x@cref}{{[equation][1][3]3.1}{[1][14][]14}}
\newlabel{eq:loop_1_summarization_y}{{3.2}{14}{Simple loop}{equation.3.2.2}{}}
\newlabel{eq:loop_1_summarization_y@cref}{{[equation][2][3]3.2}{[1][14][]14}}
\newlabel{def:tau}{{7}{15}{$\tau $ function}{define.7}{}}
\newlabel{def:tau@cref}{{[define][7][]7}{[1][15][]15}}
\newlabel{def:gamma}{{8}{15}{$\Gamma $ function}{define.8}{}}
\newlabel{def:gamma@cref}{{[define][8][]8}{[1][15][]15}}
\newlabel{def:state_diagram}{{9}{15}{state diagram}{define.9}{}}
\newlabel{def:state_diagram@cref}{{[define][9][]9}{[1][15][]15}}
\@writefile{lof}{\contentsline {figure}{\numberline {3.1}{\ignorespaces State diagram of the cycle from Program \ref  {program:loop_1}\relax }}{16}{figure.caption.10}\protected@file@percent }
\newlabel{fig:loop_1_diagram}{{3.1}{16}{State diagram of the cycle from Program \ref {program:loop_1}\relax }{figure.caption.10}{}}
\newlabel{fig:loop_1_diagram@cref}{{[figure][1][3]3.1}{[1][16][]16}}
\citation{PDA}
\@writefile{toc}{\contentsline {section}{\numberline {3.3}Complex loop}{17}{section.3.3}\protected@file@percent }
\newlabel{section:loop_2}{{3.3}{17}{Complex loop}{section.3.3}{}}
\newlabel{section:loop_2@cref}{{[section][3][3]3.3}{[1][17][]17}}
\newlabel{def:path}{{10}{17}{path}{define.10}{}}
\newlabel{def:path@cref}{{[define][10][]10}{[1][17][]17}}
\newlabel{program:loop_2}{{3.3}{18}{Complex loop}{lstlisting.3.3}{}}
\newlabel{program:loop_2@cref}{{[listing][3][3]3.3}{[1][17][]18}}
\@writefile{lol}{\contentsline {lstlisting}{\numberline {3.3}Complex loop.}{18}{lstlisting.3.3}\protected@file@percent }
\newlabel{def:tau2}{{11}{18}{extended $\tau $ function}{define.11}{}}
\newlabel{def:tau2@cref}{{[define][11][]11}{[1][18][]18}}
\newlabel{def:gamma2}{{12}{18}{extended $\Gamma $ function}{define.12}{}}
\newlabel{def:gamma2@cref}{{[define][12][]12}{[1][18][]18}}
\@writefile{lof}{\contentsline {figure}{\numberline {3.2}{\ignorespaces State diagram of the loop from Program \ref  {program:loop_2}.\relax }}{19}{figure.caption.12}\protected@file@percent }
\newlabel{figure:loop_2_diagram_1}{{3.2}{19}{State diagram of the loop from Program \ref {program:loop_2}.\relax }{figure.caption.12}{}}
\newlabel{figure:loop_2_diagram_1@cref}{{[figure][2][3]3.2}{[1][19][]19}}
\@writefile{toc}{\contentsline {section}{\numberline {3.4}Splittable loop}{20}{section.3.4}\protected@file@percent }
\newlabel{section:loop_3}{{3.4}{20}{Splittable loop}{section.3.4}{}}
\newlabel{section:loop_3@cref}{{[section][4][3]3.4}{[1][20][]20}}
\newlabel{subsection:loop_3_state_analysis}{{3.4}{20}{}{lstnumber.3.4.11}{}}
\newlabel{subsection:loop_3_state_analysis@cref}{{[section][4][3]3.4}{[1][20][]20}}
\newlabel{program:loop_3}{{3.4}{21}{Splittable loop}{lstlisting.3.4}{}}
\newlabel{program:loop_3@cref}{{[listing][4][3]3.4}{[1][20][]21}}
\@writefile{lol}{\contentsline {lstlisting}{\numberline {3.4}Splittable loop.}{21}{lstlisting.3.4}\protected@file@percent }
\@writefile{lof}{\contentsline {figure}{\numberline {3.3}{\ignorespaces State diagram of Program \ref  {program:loop_3}\relax }}{21}{figure.caption.14}\protected@file@percent }
\newlabel{figure:loop_3_diagram_1}{{3.3}{21}{State diagram of Program \ref {program:loop_3}\relax }{figure.caption.14}{}}
\newlabel{figure:loop_3_diagram_1@cref}{{[figure][3][3]3.3}{[1][20][]21}}
\newlabel{figure:loop_3_der_2_diagram_1}{{3.4a}{23}{Level one. \relax }{figure.caption.15}{}}
\newlabel{figure:loop_3_der_2_diagram_1@cref}{{[subfigure][1][3,4]3.4a}{[1][23][]23}}
\newlabel{sub@figure:loop_3_der_2_diagram_1}{{a}{23}{Level one. \relax }{figure.caption.15}{}}
\newlabel{sub@figure:loop_3_der_2_diagram_1@cref}{{[subfigure][1][3,4]3.4a}{[1][23][]23}}
\newlabel{figure:loop_3_der_2_diagram_2}{{3.4b}{23}{Level two. \relax }{figure.caption.15}{}}
\newlabel{figure:loop_3_der_2_diagram_2@cref}{{[subfigure][2][3,4]3.4b}{[1][23][]23}}
\newlabel{sub@figure:loop_3_der_2_diagram_2}{{b}{23}{Level two. \relax }{figure.caption.15}{}}
\newlabel{sub@figure:loop_3_der_2_diagram_2@cref}{{[subfigure][2][3,4]3.4b}{[1][23][]23}}
\newlabel{figure:loop_3_der_2_diagram_3}{{3.4c}{23}{Level three. \relax }{figure.caption.15}{}}
\newlabel{figure:loop_3_der_2_diagram_3@cref}{{[subfigure][3][3,4]3.4c}{[1][23][]23}}
\newlabel{sub@figure:loop_3_der_2_diagram_3}{{c}{23}{Level three. \relax }{figure.caption.15}{}}
\newlabel{sub@figure:loop_3_der_2_diagram_3@cref}{{[subfigure][3][3,4]3.4c}{[1][23][]23}}
\newlabel{figure:loop_3_der_2_diagram_4}{{3.4d}{23}{Level four. \relax }{figure.caption.15}{}}
\newlabel{figure:loop_3_der_2_diagram_4@cref}{{[subfigure][4][3,4]3.4d}{[1][23][]23}}
\newlabel{sub@figure:loop_3_der_2_diagram_4}{{d}{23}{Level four. \relax }{figure.caption.15}{}}
\newlabel{sub@figure:loop_3_der_2_diagram_4@cref}{{[subfigure][4][3,4]3.4d}{[1][23][]23}}
\@writefile{lof}{\contentsline {figure}{\numberline {3.4}{\ignorespaces State diagrams of DC$_2$ induced from Program \ref  {program:loop_3}.\relax }}{23}{figure.caption.15}\protected@file@percent }
\newlabel{def:state_diagram2}{{14}{23}{extended state diagram}{define.14}{}}
\newlabel{def:state_diagram2@cref}{{[define][14][]14}{[1][23][]23}}
\newlabel{def:state_effect}{{15}{23}{state (path) effect}{define.15}{}}
\newlabel{def:state_effect@cref}{{[define][15][]15}{[1][23][]23}}
\newlabel{subsection:loop_3_der_3}{{3.4}{25}{}{figure.caption.15}{}}
\newlabel{subsection:loop_3_der_3@cref}{{[section][4][3]3.4}{[1][25][]25}}
\@writefile{lof}{\contentsline {figure}{\numberline {3.5}{\ignorespaces State diagram of level four of DC$_4$.\relax }}{26}{figure.caption.16}\protected@file@percent }
\newlabel{figure:loop_3_der_4_diagram_4}{{3.5}{26}{State diagram of level four of DC$_4$.\relax }{figure.caption.16}{}}
\newlabel{figure:loop_3_der_4_diagram_4@cref}{{[figure][5][3]3.5}{[1][25][]26}}
\@setckpt{analysis}{
\setcounter{page}{28}
\setcounter{equation}{2}
\setcounter{enumi}{0}
\setcounter{enumii}{0}
\setcounter{enumiii}{0}
\setcounter{enumiv}{0}
\setcounter{footnote}{1}
\setcounter{mpfootnote}{0}
\setcounter{part}{0}
\setcounter{chapter}{3}
\setcounter{section}{4}
\setcounter{subsection}{0}
\setcounter{subsubsection}{0}
\setcounter{paragraph}{0}
\setcounter{subparagraph}{0}
\setcounter{figure}{5}
\setcounter{table}{0}
\setcounter{Item}{0}
\setcounter{Hfootnote}{2}
\setcounter{bookmark@seq@number}{11}
\setcounter{parentequation}{0}
\setcounter{FancyVerbLine}{0}
\setcounter{NAT@ctr}{0}
\setcounter{lstnumber}{12}
\setcounter{ALC@unique}{0}
\setcounter{ALC@line}{0}
\setcounter{ALC@rem}{0}
\setcounter{ALC@depth}{0}
\setcounter{AlgoLine}{0}
\setcounter{algocfline}{0}
\setcounter{algocfproc}{0}
\setcounter{algocf}{0}
\setcounter{caption@flags}{0}
\setcounter{continuedfloat}{0}
\setcounter{subfigure}{0}
\setcounter{subtable}{0}
\setcounter{float@type}{8}
\setcounter{thm}{0}
\setcounter{define}{15}
\setcounter{example}{3}
\setcounter{section@level}{0}
\setcounter{lstlisting}{4}
}
