\relax 
\providecommand\hyper@newdestlabel[2]{}
\@writefile{toc}{\contentsline {chapter}{\numberline {A}Attachments}{56}{appendix.A}\protected@file@percent }
\@writefile{lof}{\addvspace {10\p@ }}
\@writefile{lot}{\addvspace {10\p@ }}
\@writefile{loa}{\addvspace {10\p@ }}
\newlabel{chap:appendix}{{A}{56}{Attachments}{appendix.A}{}}
\newlabel{chap:appendix@cref}{{[appendix][1][2147483647]A}{[1][56][]56}}
\@writefile{toc}{\contentsline {section}{\numberline {A.1}Technical details for \nameref  {section:loop_2}}{56}{section.A.1}\protected@file@percent }
\newlabel{section:appendix_loop_2}{{A.1}{56}{Technical details for \nameref {section:loop_2}}{section.A.1}{}}
\newlabel{section:appendix_loop_2@cref}{{[subappendix][1][2147483647,1]A.1}{[1][56][]56}}
\@writefile{lot}{\contentsline {table}{\numberline {A.1}{\ignorespaces Analysis of all paths of length two related to Program \ref  {program:loop_2}, whose $\tau $ function is satisfiable.\relax }}{56}{table.caption.40}\protected@file@percent }
\newlabel{table:loop_2_paths_2}{{A.1}{56}{Analysis of all paths of length two related to Program \ref {program:loop_2}, whose $\tau $ function is satisfiable.\relax }{table.caption.40}{}}
\newlabel{table:loop_2_paths_2@cref}{{[table][1][2147483647,1]A.1}{[1][56][]56}}
\@writefile{lot}{\contentsline {table}{\numberline {A.2}{\ignorespaces Analysis of all paths of length two related to Program \ref  {program:loop_2}, whose $\tau $ function is not satisfiable.\relax }}{56}{table.caption.41}\protected@file@percent }
\newlabel{table:loop_2_paths_2_unsat}{{A.2}{56}{Analysis of all paths of length two related to Program \ref {program:loop_2}, whose $\tau $ function is not satisfiable.\relax }{table.caption.41}{}}
\newlabel{table:loop_2_paths_2_unsat@cref}{{[table][2][2147483647,1]A.2}{[1][56][]56}}
\@writefile{lot}{\contentsline {table}{\numberline {A.3}{\ignorespaces Terminability analysis of paths of length one related to Program \ref  {program:loop_2}. Formula $r_\rho $ refers to $r_\rho $ from Definition\nobreakspace  {}\ref  {def:gamma2}.\relax }}{57}{table.caption.42}\protected@file@percent }
\newlabel{table:loop_2_gamma_1}{{A.3}{57}{Terminability analysis of paths of length one related to Program \ref {program:loop_2}. Formula $r_\rho $ refers to $r_\rho $ from Definition~\ref {def:gamma2}.\relax }{table.caption.42}{}}
\newlabel{table:loop_2_gamma_1@cref}{{[table][3][2147483647,1]A.3}{[1][56][]57}}
\newlabel{section:appendix_loop_2_effect_of_a}{{A.1}{57}{}{table.caption.42}{}}
\newlabel{section:appendix_loop_2_effect_of_a@cref}{{[subappendix][1][2147483647,1]A.1}{[1][57][]57}}
\@writefile{toc}{\contentsline {section}{\numberline {A.2}Technical details for \nameref  {section:loop_3}}{57}{section.A.2}\protected@file@percent }
\newlabel{section:appendix_loop_3}{{A.2}{57}{Technical details for \nameref {section:loop_3}}{section.A.2}{}}
\newlabel{section:appendix_loop_3@cref}{{[subappendix][2][2147483647,1]A.2}{[1][57][]57}}
\@writefile{lot}{\contentsline {table}{\numberline {A.4}{\ignorespaces Analysis of paths of length two related to Program \ref  {program:loop_3}, whose $\tau $ function is satisfiable.\relax }}{57}{table.caption.43}\protected@file@percent }
\newlabel{table:loop_3_paths_2}{{A.4}{57}{Analysis of paths of length two related to Program \ref {program:loop_3}, whose $\tau $ function is satisfiable.\relax }{table.caption.43}{}}
\newlabel{table:loop_3_paths_2@cref}{{[table][4][2147483647,1]A.4}{[1][57][]57}}
\@writefile{lot}{\contentsline {table}{\numberline {A.5}{\ignorespaces Analysis of paths of length two related to DC$_2$, whose $\tau $ function is satisfiable.\relax }}{58}{table.caption.44}\protected@file@percent }
\newlabel{table:loop_3_der_2_paths_2}{{A.5}{58}{Analysis of paths of length two related to DC$_2$, whose $\tau $ function is satisfiable.\relax }{table.caption.44}{}}
\newlabel{table:loop_3_der_2_paths_2@cref}{{[table][5][2147483647,1]A.5}{[1][57][]58}}
\@writefile{lot}{\contentsline {table}{\numberline {A.6}{\ignorespaces Analysis of paths of length three related to DC$_2$, whose $\tau $ function is satisfiable.\relax }}{58}{table.caption.45}\protected@file@percent }
\newlabel{table:loop_3_der_2_paths_3}{{A.6}{58}{Analysis of paths of length three related to DC$_2$, whose $\tau $ function is satisfiable.\relax }{table.caption.45}{}}
\newlabel{table:loop_3_der_2_paths_3@cref}{{[table][6][2147483647,1]A.6}{[1][58][]58}}
\@writefile{lot}{\contentsline {table}{\numberline {A.7}{\ignorespaces Analysis of paths of length four related to DC$_2$, whose $\tau $ function is satisfiable.\relax }}{58}{table.caption.46}\protected@file@percent }
\newlabel{table:loop_3_der_2_paths_4}{{A.7}{58}{Analysis of paths of length four related to DC$_2$, whose $\tau $ function is satisfiable.\relax }{table.caption.46}{}}
\newlabel{table:loop_3_der_2_paths_4@cref}{{[table][7][2147483647,1]A.7}{[1][58][]58}}
\@writefile{lot}{\contentsline {table}{\numberline {A.8}{\ignorespaces Analysis of paths of length five related to DC$_2$, whose $\tau $ function is satisfiable.\relax }}{58}{table.caption.47}\protected@file@percent }
\newlabel{table:loop_3_der_2_paths_5}{{A.8}{58}{Analysis of paths of length five related to DC$_2$, whose $\tau $ function is satisfiable.\relax }{table.caption.47}{}}
\newlabel{table:loop_3_der_2_paths_5@cref}{{[table][8][2147483647,1]A.8}{[1][58][]58}}
\@writefile{lot}{\contentsline {table}{\numberline {A.9}{\ignorespaces Terminability analysis of paths of length one related Program \ref  {program:loop_3}. Formula $r_\rho $ refers to $r_\rho $ from Definition\nobreakspace  {}\ref  {def:gamma2}.\relax }}{59}{table.caption.48}\protected@file@percent }
\newlabel{table:loop_3_gamma_1}{{A.9}{59}{Terminability analysis of paths of length one related Program \ref {program:loop_3}. Formula $r_\rho $ refers to $r_\rho $ from Definition~\ref {def:gamma2}.\relax }{table.caption.48}{}}
\newlabel{table:loop_3_gamma_1@cref}{{[table][9][2147483647,1]A.9}{[1][58][]59}}
\@writefile{lot}{\contentsline {table}{\numberline {A.10}{\ignorespaces Terminability analysis of paths of length one related to DC$_2$. Formula $r_\rho $ refers to $r_\rho $ from Definition\nobreakspace  {}\ref  {def:gamma2}.\relax }}{59}{table.caption.49}\protected@file@percent }
\newlabel{table:loop_3_der_2_gamma_1}{{A.10}{59}{Terminability analysis of paths of length one related to DC$_2$. Formula $r_\rho $ refers to $r_\rho $ from Definition~\ref {def:gamma2}.\relax }{table.caption.49}{}}
\newlabel{table:loop_3_der_2_gamma_1@cref}{{[table][10][2147483647,1]A.10}{[1][59][]59}}
\@writefile{lot}{\contentsline {table}{\numberline {A.11}{\ignorespaces Terminability analysis of paths of length two related to DC$_2$. Formula $r_\rho $ refers to $r_\rho $ from Definition\nobreakspace  {}\ref  {def:gamma2}.\relax }}{59}{table.caption.50}\protected@file@percent }
\newlabel{table:loop_3_der_2_gamma_2}{{A.11}{59}{Terminability analysis of paths of length two related to DC$_2$. Formula $r_\rho $ refers to $r_\rho $ from Definition~\ref {def:gamma2}.\relax }{table.caption.50}{}}
\newlabel{table:loop_3_der_2_gamma_2@cref}{{[table][11][2147483647,1]A.11}{[1][59][]59}}
\@writefile{lot}{\contentsline {table}{\numberline {A.12}{\ignorespaces Terminability analysis of paths of length three related to DC$_2$. Formula $r_\rho $ refers to $r_\rho $ from Definition\nobreakspace  {}\ref  {def:gamma2}.\relax }}{59}{table.caption.51}\protected@file@percent }
\newlabel{table:loop_3_der_2_gamma_3}{{A.12}{59}{Terminability analysis of paths of length three related to DC$_2$. Formula $r_\rho $ refers to $r_\rho $ from Definition~\ref {def:gamma2}.\relax }{table.caption.51}{}}
\newlabel{table:loop_3_der_2_gamma_3@cref}{{[table][12][2147483647,1]A.12}{[1][59][]59}}
\@writefile{lot}{\contentsline {table}{\numberline {A.13}{\ignorespaces Terminability analysis of paths of length four related to DC$_2$. Formula $r_\rho $ refers to $r_\rho $ from Definition\nobreakspace  {}\ref  {def:gamma2}.\relax }}{59}{table.caption.52}\protected@file@percent }
\newlabel{table:loop_3_der_2_gamma_4}{{A.13}{59}{Terminability analysis of paths of length four related to DC$_2$. Formula $r_\rho $ refers to $r_\rho $ from Definition~\ref {def:gamma2}.\relax }{table.caption.52}{}}
\newlabel{table:loop_3_der_2_gamma_4@cref}{{[table][13][2147483647,1]A.13}{[1][59][]59}}
\newlabel{section:appendix_loop_3_der_3}{{A.2}{60}{}{table.caption.52}{}}
\newlabel{section:appendix_loop_3_der_3@cref}{{[subappendix][2][2147483647,1]A.2}{[1][59][]60}}
\newlabel{section:appendix_loop_3_der_4}{{A.2}{60}{}{table.caption.52}{}}
\newlabel{section:appendix_loop_3_der_4@cref}{{[subappendix][2][2147483647,1]A.2}{[1][60][]60}}
\@writefile{toc}{\contentsline {section}{\numberline {A.3}Benchmarks used in \nameref  {chap:evaluation}}{61}{section.A.3}\protected@file@percent }
\newlabel{section:appendix_comparison}{{A.3}{61}{Benchmarks used in \nameref {chap:evaluation}}{section.A.3}{}}
\newlabel{section:appendix_comparison@cref}{{[subappendix][3][2147483647,1]A.3}{[1][61][]61}}
\newlabel{program:benchmark_04}{{A.1}{61}{Benchmark 4}{lstlisting.A.1}{}}
\newlabel{program:benchmark_04@cref}{{[listing][1][2147483647,1]A.1}{[1][61][]61}}
\@writefile{lol}{\contentsline {lstlisting}{\numberline {A.1}Benchmark 4.}{61}{lstlisting.A.1}\protected@file@percent }
\newlabel{program:benchmark_05}{{A.2}{61}{Benchmark 5}{lstlisting.A.2}{}}
\newlabel{program:benchmark_05@cref}{{[listing][2][2147483647,1]A.2}{[1][61][]61}}
\@writefile{lol}{\contentsline {lstlisting}{\numberline {A.2}Benchmark 5.}{61}{lstlisting.A.2}\protected@file@percent }
\newlabel{program:benchmark_06}{{A.3}{61}{Benchmark 6}{lstlisting.A.3}{}}
\newlabel{program:benchmark_06@cref}{{[listing][3][2147483647,1]A.3}{[1][61][]61}}
\@writefile{lol}{\contentsline {lstlisting}{\numberline {A.3}Benchmark 6.}{61}{lstlisting.A.3}\protected@file@percent }
\newlabel{program:benchmark_07}{{A.4}{61}{Benchmark 7}{lstlisting.A.4}{}}
\newlabel{program:benchmark_07@cref}{{[listing][4][2147483647,1]A.4}{[1][61][]61}}
\@writefile{lol}{\contentsline {lstlisting}{\numberline {A.4}Benchmark 7.}{61}{lstlisting.A.4}\protected@file@percent }
\newlabel{program:benchmark_08}{{A.5}{62}{Benchmark 8}{lstlisting.A.5}{}}
\newlabel{program:benchmark_08@cref}{{[listing][5][2147483647,1]A.5}{[1][61][]62}}
\@writefile{lol}{\contentsline {lstlisting}{\numberline {A.5}Benchmark 8.}{62}{lstlisting.A.5}\protected@file@percent }
\newlabel{program:benchmark_09}{{A.6}{62}{Benchmark 9}{lstlisting.A.6}{}}
\newlabel{program:benchmark_09@cref}{{[listing][6][2147483647,1]A.6}{[1][61][]62}}
\@writefile{lol}{\contentsline {lstlisting}{\numberline {A.6}Benchmark 9.}{62}{lstlisting.A.6}\protected@file@percent }
\newlabel{program:benchmark_10}{{A.7}{62}{Benchmark 10}{lstlisting.A.7}{}}
\newlabel{program:benchmark_10@cref}{{[listing][7][2147483647,1]A.7}{[1][62][]62}}
\@writefile{lol}{\contentsline {lstlisting}{\numberline {A.7}Benchmark 10.}{62}{lstlisting.A.7}\protected@file@percent }
\@writefile{toc}{\contentsline {section}{\numberline {A.4}User documentation}{62}{section.A.4}\protected@file@percent }
\newlabel{section:user_docs}{{A.4}{62}{User documentation}{section.A.4}{}}
\newlabel{section:user_docs@cref}{{[subappendix][4][2147483647,1]A.4}{[1][62][]62}}
\newlabel{docs:py_env}{{A.4}{62}{}{lstlisting.A.-1}{}}
\newlabel{docs:py_env@cref}{{[subappendix][4][2147483647,1]A.4}{[1][62][]62}}
\newlabel{docs:py_env}{{A.4}{62}{}{lstlisting.A.-2}{}}
\newlabel{docs:py_env@cref}{{[subappendix][4][2147483647,1]A.4}{[1][62][]62}}
\newlabel{docs:py_env}{{A.4}{63}{}{lstlisting.A.-3}{}}
\newlabel{docs:py_env@cref}{{[subappendix][4][2147483647,1]A.4}{[1][63][]63}}
\newlabel{docs:py_env}{{A.4}{63}{}{lstlisting.A.-4}{}}
\newlabel{docs:py_env@cref}{{[subappendix][4][2147483647,1]A.4}{[1][63][]63}}
\newlabel{docs:py_env}{{A.4}{63}{}{lstlisting.A.-5}{}}
\newlabel{docs:py_env@cref}{{[subappendix][4][2147483647,1]A.4}{[1][63][]63}}
\newlabel{docs:py_env}{{A.4}{63}{}{lstlisting.A.-6}{}}
\newlabel{docs:py_env@cref}{{[subappendix][4][2147483647,1]A.4}{[1][63][]63}}
\newlabel{docs:py_env}{{A.4}{64}{}{lstlisting.A.-7}{}}
\newlabel{docs:py_env@cref}{{[subappendix][4][2147483647,1]A.4}{[1][64][]64}}
\@setckpt{appendices}{
\setcounter{page}{65}
\setcounter{equation}{0}
\setcounter{enumi}{0}
\setcounter{enumii}{0}
\setcounter{enumiii}{0}
\setcounter{enumiv}{0}
\setcounter{footnote}{0}
\setcounter{mpfootnote}{0}
\setcounter{part}{0}
\setcounter{chapter}{1}
\setcounter{section}{4}
\setcounter{subsection}{0}
\setcounter{subsubsection}{0}
\setcounter{paragraph}{0}
\setcounter{subparagraph}{0}
\setcounter{figure}{0}
\setcounter{table}{13}
\setcounter{Item}{0}
\setcounter{Hfootnote}{6}
\setcounter{bookmark@seq@number}{27}
\setcounter{parentequation}{0}
\setcounter{FancyVerbLine}{0}
\setcounter{NAT@ctr}{22}
\setcounter{lstnumber}{2}
\setcounter{ALC@unique}{0}
\setcounter{ALC@line}{0}
\setcounter{ALC@rem}{0}
\setcounter{ALC@depth}{0}
\setcounter{AlgoLine}{0}
\setcounter{algocfline}{14}
\setcounter{algocfproc}{14}
\setcounter{algocf}{14}
\setcounter{caption@flags}{0}
\setcounter{continuedfloat}{0}
\setcounter{subfigure}{0}
\setcounter{subtable}{0}
\setcounter{float@type}{8}
\setcounter{thm}{0}
\setcounter{define}{16}
\setcounter{example}{7}
\setcounter{section@level}{0}
\setcounter{lstlisting}{7}
}
