\relax 
\providecommand\hyper@newdestlabel[2]{}
\citation{PDA}
\citation{INVARIANTS}
\citation{PDA,FLATA,LoAT,SUM1,SUM2,SUM3,SUM4,SUM5,FAST}
\citation{INVARIANTS}
\citation{z3}
\citation{FLATA}
\citation{FAST}
\citation{BENCH1}
\citation{BENCH2}
\@writefile{toc}{\contentsline {chapter}{\numberline {2}Background}{3}{chapter.2}\protected@file@percent }
\@writefile{lof}{\addvspace {10\p@ }}
\@writefile{lot}{\addvspace {10\p@ }}
\@writefile{loa}{\addvspace {10\p@ }}
\newlabel{chap:background}{{2}{3}{Background}{chapter.2}{}}
\newlabel{chap:background@cref}{{[chapter][2][]2}{[1][3][]3}}
\@writefile{toc}{\contentsline {section}{\numberline {2.1}FLATA}{3}{section.2.1}\protected@file@percent }
\citation{FLATA}
\citation{PRESBURGER_1_1,PRESBURGER_1_2}
\citation{PRESBURGER_2_1}
\citation{PRESBURGER_3_1,PRESBURGER_3_2}
\providecommand*\caption@xref[2]{\@setref\relax\@undefined{#1}}
\newlabel{program:trivial_program_with_if}{{2.1}{4}{Trivial program with an $\mathbf {if}$ statement}{lstlisting.2.1}{}}
\newlabel{program:trivial_program_with_if@cref}{{[listing][1][2]2.1}{[1][4][]4}}
\@writefile{lol}{\contentsline {lstlisting}{\numberline {2.1}Trivial program with an $\mathbf  {if}$ statement.}{4}{lstlisting.2.1}\protected@file@percent }
\@writefile{lof}{\contentsline {figure}{\numberline {2.1}{\ignorespaces Digraph associated with Program \ref  {program:trivial_program_with_if}.\relax }}{4}{figure.caption.3}\protected@file@percent }
\newlabel{fig:flata_digraph}{{2.1}{4}{Digraph associated with Program \ref {program:trivial_program_with_if}.\relax }{figure.caption.3}{}}
\newlabel{fig:flata_digraph@cref}{{[figure][1][2]2.1}{[1][4][]4}}
\citation{PDA}
\@writefile{lof}{\contentsline {figure}{\numberline {2.2}{\ignorespaces Elimination of vertices without self-loops.\relax }}{5}{figure.caption.4}\protected@file@percent }
\newlabel{fig:flata_elimination_1}{{2.2}{5}{Elimination of vertices without self-loops.\relax }{figure.caption.4}{}}
\newlabel{fig:flata_elimination_1@cref}{{[figure][2][2]2.2}{[1][4][]5}}
\@writefile{lof}{\contentsline {figure}{\numberline {2.3}{\ignorespaces Elimination of self-loops.\relax }}{5}{figure.caption.5}\protected@file@percent }
\newlabel{fig:flata_elimination_2}{{2.3}{5}{Elimination of self-loops.\relax }{figure.caption.5}{}}
\newlabel{fig:flata_elimination_2@cref}{{[figure][3][2]2.3}{[1][4][]5}}
\@writefile{toc}{\contentsline {section}{\numberline {2.2}Path dependency analysis}{5}{section.2.2}\protected@file@percent }
\citation{PDA}
\newlabel{program:trivial_program_with_while}{{2.2}{6}{Trivial program with a $\mathbf {while}$ statement}{lstlisting.2.2}{}}
\newlabel{program:trivial_program_with_while@cref}{{[listing][2][2]2.2}{[1][5][]6}}
\@writefile{lol}{\contentsline {lstlisting}{\numberline {2.2}Trivial program with a $\mathbf  {while}$ statement.}{6}{lstlisting.2.2}\protected@file@percent }
\newlabel{figure:cfg}{{2.4a}{6}{Control flow graph. \relax }{figure.caption.7}{}}
\newlabel{figure:cfg@cref}{{[subfigure][1][2,4]2.4a}{[1][5][]6}}
\newlabel{sub@figure:cfg}{{a}{6}{Control flow graph. \relax }{figure.caption.7}{}}
\newlabel{sub@figure:cfg@cref}{{[subfigure][1][2,4]2.4a}{[1][5][]6}}
\newlabel{figure:pda}{{2.4b}{6}{Path dependency analysis. \relax }{figure.caption.7}{}}
\newlabel{figure:pda@cref}{{[subfigure][2][2,4]2.4b}{[1][5][]6}}
\newlabel{sub@figure:pda}{{b}{6}{Path dependency analysis. \relax }{figure.caption.7}{}}
\newlabel{sub@figure:pda@cref}{{[subfigure][2][2,4]2.4b}{[1][5][]6}}
\@writefile{lof}{\contentsline {figure}{\numberline {2.4}{\ignorespaces Structures associated with Program \ref  {program:trivial_program_with_while}.\relax }}{6}{figure.caption.7}\protected@file@percent }
\citation{LoAT}
\@writefile{toc}{\contentsline {section}{\numberline {2.3}Loop acceleration}{7}{section.2.3}\protected@file@percent }
\newlabel{section:loop_acceleration}{{2.3}{7}{Loop acceleration}{section.2.3}{}}
\newlabel{section:loop_acceleration@cref}{{[section][3][2]2.3}{[1][7][]7}}
\newlabel{loop_acceleration_loop}{{2.1}{7}{Loop acceleration}{equation.2.3.1}{}}
\newlabel{loop_acceleration_loop@cref}{{[equation][1][2]2.1}{[1][7][]7}}
\newlabel{loop_acceleration_formula}{{2.2}{7}{Loop acceleration}{equation.2.3.2}{}}
\newlabel{loop_acceleration_formula@cref}{{[equation][2][2]2.2}{[1][7][]7}}
\citation{PDA}
\@writefile{toc}{\contentsline {section}{\numberline {2.4}Our approach}{8}{section.2.4}\protected@file@percent }
\@setckpt{background}{
\setcounter{page}{9}
\setcounter{equation}{2}
\setcounter{enumi}{0}
\setcounter{enumii}{0}
\setcounter{enumiii}{0}
\setcounter{enumiv}{0}
\setcounter{footnote}{1}
\setcounter{mpfootnote}{0}
\setcounter{part}{0}
\setcounter{chapter}{2}
\setcounter{section}{4}
\setcounter{subsection}{0}
\setcounter{subsubsection}{0}
\setcounter{paragraph}{0}
\setcounter{subparagraph}{0}
\setcounter{figure}{4}
\setcounter{table}{0}
\setcounter{Item}{0}
\setcounter{Hfootnote}{1}
\setcounter{bookmark@seq@number}{6}
\setcounter{parentequation}{0}
\setcounter{FancyVerbLine}{0}
\setcounter{NAT@ctr}{0}
\setcounter{lstnumber}{8}
\setcounter{ALC@unique}{0}
\setcounter{ALC@line}{0}
\setcounter{ALC@rem}{0}
\setcounter{ALC@depth}{0}
\setcounter{AlgoLine}{0}
\setcounter{algocfline}{0}
\setcounter{algocfproc}{0}
\setcounter{algocf}{0}
\setcounter{caption@flags}{0}
\setcounter{continuedfloat}{0}
\setcounter{subfigure}{2}
\setcounter{subtable}{0}
\setcounter{float@type}{8}
\setcounter{thm}{0}
\setcounter{define}{0}
\setcounter{example}{0}
\setcounter{section@level}{0}
\setcounter{lstlisting}{2}
}
