\relax 
\providecommand\hyper@newdestlabel[2]{}
\bibdata{bibliography}
\bibcite{BUGS}{{1}{}{{}}{{}}}
\bibcite{TEST}{{2}{}{{}}{{}}}
\bibcite{PDA}{{3}{}{{}}{{}}}
\bibcite{UNDEC}{{4}{}{{}}{{}}}
\bibcite{INVARIANTS}{{5}{}{{}}{{}}}
\bibcite{FLATA}{{6}{}{{}}{{}}}
\bibcite{LoAT}{{7}{}{{}}{{}}}
\bibcite{SUM1}{{8}{}{{}}{{}}}
\bibcite{SUM2}{{9}{}{{}}{{}}}
\bibcite{SUM3}{{10}{}{{}}{{}}}
\bibcite{SUM4}{{11}{}{{}}{{}}}
\bibcite{SUM5}{{12}{}{{}}{{}}}
\bibcite{FAST}{{13}{}{{}}{{}}}
\bibcite{z3}{{14}{}{{}}{{}}}
\bibcite{BENCH1}{{15}{}{{}}{{}}}
\bibcite{BENCH2}{{16}{}{{}}{{}}}
\@writefile{toc}{\contentsline {chapter}{Bibliography}{54}{chapter*.39}\protected@file@percent }
\bibcite{PRESBURGER_1_1}{{17}{}{{}}{{}}}
\bibcite{PRESBURGER_1_2}{{18}{}{{}}{{}}}
\bibcite{PRESBURGER_2_1}{{19}{}{{}}{{}}}
\bibcite{PRESBURGER_3_1}{{20}{}{{}}{{}}}
\bibcite{PRESBURGER_3_2}{{21}{}{{}}{{}}}
\bibcite{LIN}{{22}{}{{}}{{}}}
\bibstyle{ieeetr}
\@setckpt{bibliography}{
\setcounter{page}{56}
\setcounter{equation}{0}
\setcounter{enumi}{0}
\setcounter{enumii}{0}
\setcounter{enumiii}{0}
\setcounter{enumiv}{0}
\setcounter{footnote}{0}
\setcounter{mpfootnote}{0}
\setcounter{part}{0}
\setcounter{chapter}{6}
\setcounter{section}{0}
\setcounter{subsection}{0}
\setcounter{subsubsection}{0}
\setcounter{paragraph}{0}
\setcounter{subparagraph}{0}
\setcounter{figure}{0}
\setcounter{table}{0}
\setcounter{Item}{0}
\setcounter{Hfootnote}{6}
\setcounter{bookmark@seq@number}{22}
\setcounter{parentequation}{0}
\setcounter{FancyVerbLine}{0}
\setcounter{NAT@ctr}{22}
\setcounter{lstnumber}{12}
\setcounter{ALC@unique}{0}
\setcounter{ALC@line}{0}
\setcounter{ALC@rem}{0}
\setcounter{ALC@depth}{0}
\setcounter{AlgoLine}{0}
\setcounter{algocfline}{14}
\setcounter{algocfproc}{14}
\setcounter{algocf}{14}
\setcounter{caption@flags}{0}
\setcounter{continuedfloat}{0}
\setcounter{subfigure}{0}
\setcounter{subtable}{0}
\setcounter{float@type}{8}
\setcounter{thm}{0}
\setcounter{define}{16}
\setcounter{example}{7}
\setcounter{section@level}{0}
\setcounter{lstlisting}{0}
}
