\relax 
\providecommand\hyper@newdestlabel[2]{}
\citation{FLATA}
\citation{LoAT}
\citation{z3}
\@writefile{toc}{\contentsline {chapter}{\numberline {5}Evaluation}{49}{chapter.5}\protected@file@percent }
\@writefile{lof}{\addvspace {10\p@ }}
\@writefile{lot}{\addvspace {10\p@ }}
\@writefile{loa}{\addvspace {10\p@ }}
\newlabel{chap:evaluation}{{5}{49}{Evaluation}{chapter.5}{}}
\newlabel{chap:evaluation@cref}{{[chapter][5][]5}{[1][49][]49}}
\@writefile{lot}{\contentsline {table}{\numberline {5.1}{\ignorespaces Comparison of various summarization tools.\relax }}{49}{table.caption.37}\protected@file@percent }
\newlabel{table:tool_comparison}{{5.1}{49}{Comparison of various summarization tools.\relax }{table.caption.37}{}}
\newlabel{table:tool_comparison@cref}{{[table][1][5]5.1}{[1][49][]49}}
\@writefile{lof}{\contentsline {figure}{\numberline {5.1}{\ignorespaces Summarization speed.\relax }}{51}{figure.caption.38}\protected@file@percent }
\newlabel{plot:z3}{{5.1}{51}{Summarization speed.\relax }{figure.caption.38}{}}
\newlabel{plot:z3@cref}{{[figure][1][5]5.1}{[1][51][]51}}
\@setckpt{evaluation}{
\setcounter{page}{53}
\setcounter{equation}{0}
\setcounter{enumi}{0}
\setcounter{enumii}{0}
\setcounter{enumiii}{0}
\setcounter{enumiv}{0}
\setcounter{footnote}{2}
\setcounter{mpfootnote}{0}
\setcounter{part}{0}
\setcounter{chapter}{5}
\setcounter{section}{0}
\setcounter{subsection}{0}
\setcounter{subsubsection}{0}
\setcounter{paragraph}{0}
\setcounter{subparagraph}{0}
\setcounter{figure}{1}
\setcounter{table}{1}
\setcounter{Item}{0}
\setcounter{Hfootnote}{6}
\setcounter{bookmark@seq@number}{20}
\setcounter{parentequation}{0}
\setcounter{FancyVerbLine}{0}
\setcounter{NAT@ctr}{0}
\setcounter{lstnumber}{12}
\setcounter{ALC@unique}{0}
\setcounter{ALC@line}{0}
\setcounter{ALC@rem}{0}
\setcounter{ALC@depth}{0}
\setcounter{AlgoLine}{0}
\setcounter{algocfline}{14}
\setcounter{algocfproc}{14}
\setcounter{algocf}{14}
\setcounter{caption@flags}{0}
\setcounter{continuedfloat}{0}
\setcounter{subfigure}{0}
\setcounter{subtable}{0}
\setcounter{float@type}{8}
\setcounter{thm}{0}
\setcounter{define}{16}
\setcounter{example}{7}
\setcounter{section@level}{0}
\setcounter{lstlisting}{0}
}
